%YAML 1.1
%TAG !u! tag:unity3d.com,2011:
--- !u!78 &1
TagManager:
  serializedVersion: 2
  tags:
  - Ground
  - Opponent
  layers:
  - Default
  - TransparentFX
  - Ignore Raycast
  - 
  - Water
  - UI
  - 
  - 
  - Player
  - Drake
  - Opponent
  - Ground
  - Missile
  - 
  - 
  - 
  - 
  - 
  - 
  - 
  - 
  - 
  - 
  - 
  - 
  - 
  - 
  - 
  - 
  - 
  - 
  - 
  m_SortingLayers:
  - name: Default
    uniqueID: 0
    locked: 0
  - name: Background
    uniqueID: 1082881069
    locked: 0
  - name: Effects
    uniqueID: 1615604663
    locked: 0
  - name: Figures
    uniqueID: 2609347593
    locked: 0
  - name: Foreground
    uniqueID: 3170467461
    locked: 0
